<svg width="12" height="12" xmlns="http://www.w3.org/2000/svg">
  <path fill-rule="evenodd" clip-rule="evenodd" d="M6 12A6 6 0 106 0a6 6 0 000 12zm.75-9a.75.75 0 00-1.5 0v3.75H8a.75.75 0 000-1.5H6.75V3z" fill="#000"/>
</svg>
